Generating phenotypic decline indexes using the pdi package • pdi
…
There are several steps involved the initial preparation of the example phenotypic data collection sheets.

Firstly, the sheets can be parsed to give a list object containing the raw data for each site using:

d <- map(files,readPhenotypeSheet)

These can then be assembled into a single tibble with the following:

p <- map(d,preparePhenotypeData) %>%
  bind_rows()

As shown below, this provides a tibble containing 36 phenotypic descriptors for the 40 trees across the two sites.

print(p)
#> # A tibble: 40 x 36
#>    Location    ID `Agrilus exit h… `Branch epicorm… `Crown contact …
#>    <chr>    <dbl>            <dbl> <chr>                       <dbl>
#>  1 Site 1       1                0 2                              80
#>  2 Site 1       2                0 2                              55
#>  3 Site 1       3                0 3                              50
#>  4 Site 1       4                0 1                              10
#>  5 Site 1       5                0 1                              55
#>  6 Site 1       6                0 2                              15
#>  7 Site 1       7                0 2                              50
#>  8 Site 1       8                0 3                               0
#>  9 Site 1       9                0 3                              10
#> 10 Site 1      10                0 1                              15
#> # … with 30 more rows, and 31 more variables: `Crown transparency (%)` <dbl>,
#> #   `Crown fruiting bodies` <chr>, `Crown mildew` <chr>, `Diameter at breast
#> #   height (m)` <dbl>, `Dieback location` <chr>, `Dieback type` <chr>,
#> #   GPS <chr>, `Ground level fruiting bodies` <chr>, `Insect
#> #   defoliation` <chr>, `Insect defoliation type` <chr>, `Lower crown height
#> #   (m)` <dbl>, `Missing crown (%)` <dbl>, `Oval shaped exit holes` <chr>,
#> #   `Pruning / branch loss` <chr>, `Small circular shaped exit holes` <chr>,
#> #   `Social class` <chr>, `Stem fruiting bodies` <chr>, `Stem
#> #   epicormics` <chr>, Status <chr>, `Timber height (m)` <dbl>, `Total height
…
